{
	"ulid": "01G7RMB2AMCPK5SZ2SSEFQ4W9V",
	"minTime": 1657519266756,
	"maxTime": 1657526400000,
	"stats": {
		"numSamples": 4055,
		"numSeries": 10,
		"numChunks": 40
	},
	"compaction": {
		"level": 1,
		"sources": [
			"01G7RMB2AMCPK5SZ2SSEFQ4W9V"
		]
	},
	"version": 1
}